%YAML 1.1
%TAG !u! tag:unity3d.com,2011:
--- !u!74 &7400000
AnimationClip:
  m_ObjectHideFlags: 0
  m_CorrespondingSourceObject: {fileID: 0}
  m_PrefabInstance: {fileID: 0}
  m_PrefabAsset: {fileID: 0}
  m_Name: Idle_Direita
  serializedVersion: 6
  m_Legacy: 0
  m_Compressed: 0
  m_UseHighQualityCurve: 1
  m_RotationCurves: []
  m_CompressedRotationCurves: []
  m_EulerCurves: []
  m_PositionCurves: []
  m_ScaleCurves: []
  m_FloatCurves: []
  m_PPtrCurves:
  - curve:
    - time: 0
      value: {fileID: -4304280020315462136, guid: e880643fca0a4e24f89678d017bb6312, type: 3}
    - time: 0.13333334
      value: {fileID: -2962649813937887135, guid: e880643fca0a4e24f89678d017bb6312, type: 3}
    - time: 0.25
      value: {fileID: -2515833022398503075, guid: e880643fca0a4e24f89678d017bb6312, type: 3}
    - time: 0.36666667
      value: {fileID: -6996454589012374460, guid: e880643fca0a4e24f89678d017bb6312, type: 3}
    - time: 0.5
      value: {fileID: -3835582357353317092, guid: e880643fca0a4e24f89678d017bb6312, type: 3}
    - time: 0.6333333
      value: {fileID: 2873603654711039583, guid: e880643fca0a4e24f89678d017bb6312, type: 3}
    - time: 0.75
      value: {fileID: -3736679283336951105, guid: e880643fca0a4e24f89678d017bb6312, type: 3}
    - time: 0.8666667
      value: {fileID: 5476599389679128927, guid: e880643fca0a4e24f89678d017bb6312, type: 3}
    - time: 1
      value: {fileID: 8646861410294342624, guid: e880643fca0a4e24f89678d017bb6312, type: 3}
    attribute: m_Sprite
    path: 
    classID: 212
    script: {fileID: 0}
  m_SampleRate: 60
  m_WrapMode: 0
  m_Bounds:
    m_Center: {x: 0, y: 0, z: 0}
    m_Extent: {x: 0, y: 0, z: 0}
  m_ClipBindingConstant:
    genericBindings:
    - serializedVersion: 2
      path: 0
      attribute: 0
      script: {fileID: 0}
      typeID: 212
      customType: 23
      isPPtrCurve: 1
    pptrCurveMapping:
    - {fileID: -4304280020315462136, guid: e880643fca0a4e24f89678d017bb6312, type: 3}
    - {fileID: -2962649813937887135, guid: e880643fca0a4e24f89678d017bb6312, type: 3}
    - {fileID: -2515833022398503075, guid: e880643fca0a4e24f89678d017bb6312, type: 3}
    - {fileID: -6996454589012374460, guid: e880643fca0a4e24f89678d017bb6312, type: 3}
    - {fileID: -3835582357353317092, guid: e880643fca0a4e24f89678d017bb6312, type: 3}
    - {fileID: 2873603654711039583, guid: e880643fca0a4e24f89678d017bb6312, type: 3}
    - {fileID: -3736679283336951105, guid: e880643fca0a4e24f89678d017bb6312, type: 3}
    - {fileID: 5476599389679128927, guid: e880643fca0a4e24f89678d017bb6312, type: 3}
    - {fileID: 8646861410294342624, guid: e880643fca0a4e24f89678d017bb6312, type: 3}
  m_AnimationClipSettings:
    serializedVersion: 2
    m_AdditiveReferencePoseClip: {fileID: 0}
    m_AdditiveReferencePoseTime: 0
    m_StartTime: 0
    m_StopTime: 1.0166667
    m_OrientationOffsetY: 0
    m_Level: 0
    m_CycleOffset: 0
    m_HasAdditiveReferencePose: 0
    m_LoopTime: 1
    m_LoopBlend: 0
    m_LoopBlendOrientation: 0
    m_LoopBlendPositionY: 0
    m_LoopBlendPositionXZ: 0
    m_KeepOriginalOrientation: 0
    m_KeepOriginalPositionY: 1
    m_KeepOriginalPositionXZ: 0
    m_HeightFromFeet: 0
    m_Mirror: 0
  m_EditorCurves: []
  m_EulerEditorCurves: []
  m_HasGenericRootTransform: 0
  m_HasMotionFloatCurves: 0
  m_Events: []
